{
  "files": {
    "main.css": "./static/css/main.cb14001d.chunk.css",
    "main.js": "./static/js/main.0998d1fb.chunk.js",
    "main.js.map": "./static/js/main.0998d1fb.chunk.js.map",
    "runtime-main.js": "./static/js/runtime-main.b84b55e3.js",
    "runtime-main.js.map": "./static/js/runtime-main.b84b55e3.js.map",
    "static/js/2.cba5fe4a.chunk.js": "./static/js/2.cba5fe4a.chunk.js",
    "static/js/2.cba5fe4a.chunk.js.map": "./static/js/2.cba5fe4a.chunk.js.map",
    "index.html": "./index.html",
    "precache-manifest.2371028c6c313394d5111b501d272fcb.js": "./precache-manifest.2371028c6c313394d5111b501d272fcb.js",
    "service-worker.js": "./service-worker.js",
    "static/css/main.cb14001d.chunk.css.map": "./static/css/main.cb14001d.chunk.css.map",
    "static/js/2.cba5fe4a.chunk.js.LICENSE.txt": "./static/js/2.cba5fe4a.chunk.js.LICENSE.txt"
  },
  "entrypoints": [
    "static/js/runtime-main.b84b55e3.js",
    "static/js/2.cba5fe4a.chunk.js",
    "static/css/main.cb14001d.chunk.css",
    "static/js/main.0998d1fb.chunk.js"
  ]
}